<?xml version="1.0"?>
<svg xmlns="http://www.w3.org/2000/svg" xmlns:xlink="http://www.w3.org/1999/xlink" version="1.1" id="Capa_1" x="0px" y="0px" viewBox="0 0 512 512" style="enable-background:new 0 0 512 512;" xml:space="preserve" width="512px" height="512px" class=""><g><g>
	<g>
		<path d="M256,0c-8.291,0-15,6.709-15,15s6.709,15,15,15c124.072,0,226,101.928,226,226S380.072,482,256,482S30,380.072,30,256    c0-60.317,26.401-118.101,69-160.151V121c0,8.291,6.709,15,15,15s15-6.709,15-15V61c0-8.291-7.209-15-15.5-15h-60    c-8.291,0-15,6.709-15,15s6.709,14.9,15,14.9h22.562C28.693,123.42,0,188.33,0,256c0,140.61,115.39,256,256,256    s256-115.39,256-256S396.61,0,256,0z" data-original="#000000" class="active-path" data-old_color="#000000" fill="#455A64"/>
	</g>
</g><g>
	<g>
		<path d="M406,271c-8.291,0-15-6.709-15-15c0-8.291,6.709-15,15-15h14.24c-3.105-34.243-16.661-65.497-37.52-90.507l-10.047,10.047    c-5.863,5.863-15.352,5.863-21.213,0c-5.863-5.863-5.863-15.35,0-21.213l10.047-10.047c-25.01-20.859-56.265-34.415-90.507-37.52    V106c0,8.291-6.709,15-15,15c-8.291,0-15-6.709-15-15V91.76c-34.243,3.105-65.497,16.661-90.507,37.52l10.047,10.047    c5.863,5.863,5.863,15.35,0,21.213c-5.861,5.863-15.35,5.863-21.213,0l-10.047-10.047c-20.859,25.01-34.415,56.265-37.52,90.507    H106c8.291,0,15,6.709,15,15s-6.709,15-15,15H91.76c3.105,34.243,16.661,65.495,37.52,90.505l10.047-10.047    c5.863-5.861,15.352-5.861,21.213,0c5.863,5.863,5.863,15.352,0,21.215l-10.047,10.047c25.01,20.859,56.265,34.415,90.507,37.52    V406c0-8.291,6.709-15,15-15s15,6.709,15,15v14.24c34.243-3.105,65.497-16.661,90.507-37.52l-10.047-10.047    c-5.863-5.863-5.863-15.352,0-21.215c5.861-5.861,15.35-5.861,21.213,0l10.047,10.047c20.859-25.01,34.415-56.263,37.52-90.505    H406z M296.605,296.605c-5.86,5.86-15.351,5.86-21.211,0l-30-30C242.582,263.793,241,259.984,241,256v-60c0-8.291,6.709-15,15-15    s15,6.709,15,15v53.789l25.605,25.605C302.464,281.253,302.464,290.746,296.605,296.605z" data-original="#000000" class="active-path" data-old_color="#000000" fill="#455A64"/>
	</g>
</g></g> </svg>
